ply
format ascii 1.0
comment Author: CloudCompare (TELECOM PARISTECH/EDF R&D)
obj_info Generated by CloudCompare!
element vertex 24
property float x
property float y
property float z
end_header
-6.9247 -65.8636 -10.024 
-10.554 -110.989 -36.2884 
105.113 -115.774 -39.3006 
105.267 -74.4141 -39.3302 
117.663 -16.8778 35.0569 
120.604 86.5347 30.4526 
159.609 85.8842 -48.4647 
163.815 -14.9592 -44.8833 
-28.5757 104.539 -42.797 
-29.2531 138.147 -46.5648 
110.636 136.575 -50.8556 
111.862 103.921 -48.2558 
348.554 -3.95326 -50.2332 
407.161 -7.05464 -50.3397 
350.209 -29.9578 -49.0925 
410.574 -33.5883 -49.6825 
283.815 78.4255 -51.7959 
253.307 82.0617 -51.4226 
247.662 38.4793 -50.1623 
282.855 34.953 -50.5402 
292.346 92.5871 -51.8852 
286.092 113.353 -53.241 
452.134 113.244 -37.2405 
443.705 68.6282 23.8007 
