ply
format ascii 1.0
comment Author: CloudCompare (TELECOM PARISTECH/EDF R&D)
obj_info Generated by CloudCompare!
element vertex 12
property float x
property float y
property float z
end_header
-47.3708 59.6955 4.68859 
-78.7356 37.6947 19.8441 
-48.3153 -1.7547 -43.9719 
-22.6503 25.4857 5.54414 
-50.8178 -59.4942 28.3794 
-26.3495 -94.3759 27.9229 
-14.3368 -42.2361 1.75679 
3.32328 -74.6286 1.41623 
18.9801 -131.925 1.06947 
-11.9722 -144.561 31.7479 
5.94945 -191.918 36.1291 
44.1651 -164.031 32.2311 
