ply
format ascii 1.0
comment Author: CloudCompare (TELECOM PARISTECH/EDF R&D)
obj_info Generated by CloudCompare!
element vertex 4
property float x
property float y
property float z
end_header
2.3923 -16.6075 27.5232 
48.9159 -10.8443 -47.7074 
49.8187 -89.8394 -46.3779 
5.75084 -94.4777 28.6975 
