ply
format ascii 1.0
comment Author: CloudCompare (TELECOM PARISTECH/EDF R&D)
obj_info Generated by CloudCompare!
element vertex 8
property float x
property float y
property float z
end_header
-47.3495 -29.0585 -22.5779 
-18.9621 -12.1047 -18.5948 
0.44894 -43.6335 -16.5003 
-30.833 -55.5752 -20.4793 
108.58 -69.9399 -15.5002 
147.519 -46.9736 -14.8501 
165.804 -77.7102 -13.8255 
125.342 -97.8441 -30.8025 
