ply
format ascii 1.0
comment Author: CloudCompare (TELECOM PARISTECH/EDF R&D)
obj_info Generated by CloudCompare!
element vertex 16
property float x
property float y
property float z
end_header
-86.714 -57.4564 -10.0871 
-77.9008 -23.3062 -8.75592 
-40.3445 -26.6195 -6.77963 
-43.8647 -64.641 -6.91359 
35.3018 -20.9187 -4.28053 
72.9423 -11.1527 -3.96641 
83.4656 -49.9962 17.7751 
43.3038 -61.9106 24.1227 
104.115 -125.943 -1.27196 
112.45 -153.936 -0.788595 
68.7327 -168.812 -2.17086 
61.1307 -135.987 25.0993 
-108.467 -140.401 9.47425 
-70.1502 -137.556 -13.1687 
-67.1356 -178.085 -15.9164 
-106.116 -180.203 13.2849 
