ply
format ascii 1.0
comment Author: CloudCompare (TELECOM PARISTECH/EDF R&D)
obj_info Generated by CloudCompare!
element vertex 8
property float x
property float y
property float z
end_header
-143.422 9.59557 -55.0828 
-141.1 -9.24685 61.0072 
2.86112 7.62849 -56.8152 
-1.31979 28.6082 -48.5639 
-125.588 -66.0116 13.3664 
-132.926 -46.617 -60.6825 
24.237 -25.2268 -46.3855 
28.7263 -46.7561 26.1062 
