ply
format ascii 1.0
comment Author: CloudCompare (TELECOM PARISTECH/EDF R&D)
obj_info Generated by CloudCompare!
element vertex 16
property float x
property float y
property float z
end_header
-86.5212 -34.7002 -23.1922 
-84.4476 4.01103 -22.6822 
-51.941 2.74029 -23.4426 
-51.3534 -33.3991 -23.8239 
-80.0099 -62.8238 -22.4455 
-47.3018 -64.2275 -28.0456 
-47.4233 -99.352 -23.3758 
-80.8264 -103.293 -2.44402 
117.244 9.52038 -21.1226 
148.784 3.44789 12.0877 
145.835 -33.7544 18.7457 
110.686 -28.7819 -23.954 
101.272 -68.4563 -24.0912 
100.43 -105.562 -23.3336 
138.589 -107.128 30.1311 
140.438 -67.6665 18.5723 
