ply
format ascii 1.0
comment Author: CloudCompare (TELECOM PARISTECH/EDF R&D)
obj_info Generated by CloudCompare!
element vertex 8
property float x
property float y
property float z
end_header
-38.0555 -20.501 1.42636 
-16.5941 -52.0913 3.23506 
-0.101624 -40.5021 6.25376 
-24.9531 -7.765 26.4316 
117.212 -92.1148 25.6333 
162.658 -66.2195 27.1842 
149.008 -48.4855 7.82496 
104.761 -72.9698 5.75036 
