ply
format ascii 1.0
comment Author: CloudCompare (TELECOM PARISTECH/EDF R&D)
obj_info Generated by CloudCompare!
element vertex 16
property float x
property float y
property float z
end_header
-85.4734 -42.89 -7.41712 
-78.1744 -22.6724 -8.84224 
-39.4317 -28.2914 -5.66242 
-40.9228 -47.9485 -3.0419 
37.874 -18.787 -4.10938 
36.3832 -43.7422 -3.70929 
82.7084 -32.8875 -3.12459 
72.5937 -10.707 -4.22353 
-92.6908 -137.202 -11.791 
-69.8438 -139.433 -12.7523 
-66.2895 -175.509 -13.9566 
-89.4851 -181.02 -13.0396 
62.3028 -151.911 -0.412466 
109.233 -139.528 -0.53548 
109.657 -159.657 -1.09045 
72.3282 -169.017 -1.21287 
