ply
format ascii 1.0
comment Author: CloudCompare (TELECOM PARISTECH/EDF R&D)
obj_info Generated by CloudCompare!
element vertex 8
property float x
property float y
property float z
end_header
1.04531 -56.4758 10.5102 
-129.608 -67.0456 16.5782 
-130.369 -94.0062 8.39245 
5.99181 -79.7441 18.5807 
-43.4437 55.4535 10.2631 
-47.2412 80.7035 93.2952 
-154.996 54.8677 58.4624 
-149.709 36.3216 21.1289 
