ply
format ascii 1.0
comment Author: CloudCompare (TELECOM PARISTECH/EDF R&D)
obj_info Generated by CloudCompare!
element vertex 12
property float x
property float y
property float z
end_header
-118.615 66.8513 7.18581 
-70.658 71.2653 0.0949919 
-70.6864 -89.157 18.9337 
-116.094 -89.7526 20.5134 
-52.6432 -108.121 6.80077 
-47.6536 -157.432 20.7371 
5.99394 -155.41 20.6914 
6.43166 -109.496 20.8497 
-34.5728 141.917 21.3102 
24.9073 143.666 20.1485 
23.1616 101.128 18.3851 
-32.5666 97.7583 5.92532 
