ply
format ascii 1.0
comment Author: CloudCompare (TELECOM PARISTECH/EDF R&D)
obj_info Generated by CloudCompare!
element vertex 8
property float x
property float y
property float z
end_header
-33.6987 -160.814 19.7967 
-13.796 -197.525 27.016 
128.156 -133.137 27.4968 
110.151 -90.1079 9.73162 
134.877 -13.6707 6.9669 
177.949 9.7197 31.3763 
110.549 146.588 20.0866 
69.1349 122.058 6.55341 
