ply
format ascii 1.0
comment Author: CloudCompare (TELECOM PARISTECH/EDF R&D)
obj_info Generated by CloudCompare!
element vertex 8
property float x
property float y
property float z
end_header
-33.3157 97.226 36.1042 
111.378 93.6819 30.6964 
109.643 -63.8593 37.4095 
-39.4573 -61.3185 96.2952 
288.957 80.2722 26.387 
286.207 7.63998 29.0573 
447.508 0.191513 35.4669 
444.232 71.9704 23.6787 
