ply
format ascii 1.0
comment Author: CloudCompare (TELECOM PARISTECH/EDF R&D)
obj_info Generated by CloudCompare!
element vertex 8
property float x
property float y
property float z
end_header
-5.05638 -63.1912 -64.8696 
33.3242 -49.1333 -64.5277 
-2.22378 17.7489 -64.2084 
-39.8466 8.87162 -65.0846 
92.0644 -83.4821 -64.9811 
160 -40.947 -62.4213 
131.266 -20.4521 -62.3888 
77.0586 -56.7907 -64.29 
