ply
format ascii 1.0
comment Author: CloudCompare (TELECOM PARISTECH/EDF R&D)
obj_info Generated by CloudCompare!
element vertex 4
property float x
property float y
property float z
end_header
8.02117 -187.383 30.7245 
-52.545 -206.724 118.876 
-167.509 111.423 55.7669 
-108.261 133.47 13.9616 
