ply
format ascii 1.0
comment Author: CloudCompare (TELECOM PARISTECH/EDF R&D)
obj_info Generated by CloudCompare!
element vertex 4
property float x
property float y
property float z
end_header
-49.004 -107.704 1.24146 
-2.55321 -108.761 -0.102219 
-1.58588 -155.464 6.75091 
-49.8935 -152.421 5.26254 
