ply
format ascii 1.0
comment Author: CloudCompare (TELECOM PARISTECH/EDF R&D)
obj_info Generated by CloudCompare!
element vertex 4
property float x
property float y
property float z
end_header
-63.0764 -166.093 25.0371 
6.61594 -155.867 -48.4557 
-1.85002 32.3159 26.101 
-87.416 21.1141 -39.3961 
