1,140.1147,-39.4424,1305.8090,134.4690,-38.2154,1105.8270,130.1666,-39.7999,907.1670,124.4482,102.0255,1104.9230,267.7778,278.0092,1140.0980,144.4923,-178.4333,1106.7430,182.0389,-315.2991,877.3270,119.4023,49.1245,708.2340,61.0800,40.5354,315.4200,132.2939,-133.7442,709.0110,49.9642,-0.9742,344.2020,399.7193,297.0434,1362.5380,200.2188,-388.2523,628.6090,34.6819,-29.6089,0,0.0000,0.0000,0.0000,
2,-344.0065,-85.3060,906.6720,-397.5154,-93.6838,711.7200,-449.9502,-101.8635,520.5500,-409.0881,51.8065,708.6060,-369.0793,155.4668,489.1963,-385.9457,-239.1748,714.8340,-324.3870,-299.9040,487.4859,-509.6319,-18.7065,327.4280,0.0000,0.0000,322.1950,-495.1518,-201.3853,331.3640,-4.5064,-206.8374,352.4510,-164.6303,4.1051,438.1906,-150.0938,-113.7443,436.9310,0.0000,0.0000,0.0000,-4.5064,-206.8374,8.3580,
3,-3.3767,85.1496,1263.6590,5.6469,85.3729,1066.8580,13.4521,85.0729,872.9580,13.9361,221.6949,1066.9870,15.8832,279.2089,807.1175,-2.6408,-50.9511,1066.7290,11.1765,-97.6441,828.6986,26.5756,174.1330,678.7280,17.7521,166.3351,290.7860,15.6225,-4.6517,678.5760,-0.8582,24.4635,291.8880,87.4368,271.0039,563.7640,81.0987,-94.1921,583.2270,-1.3015,161.7133,4.8500,0.0000,0.0000,0.0000,
4,-750.6300,213.4560,868.3731,-649.2000,213.4280,695.5400,-543.0500,212.8260,533.2070,-655.5200,349.5885,690.9130,-685.1700,439.1090,482.4400,-642.8900,77.2660,700.1710,-686.1300,-53.0540,495.4100,-441.2500,301.4903,367.9080,-4.0100,408.3938,377.0460,-432.9600,122.9150,373.9700,-17.1100,16.5700,371.9360,-555.8600,479.3130,272.4990,-515.5800,6.6160,317.4330,21.2200,423.4432,5.1600,0.0000,0.0000,0.0000,
5,220.1055,-143.9074,1241.8900,152.4573,-133.3477,1055.9220,84.9773,-126.1557,869.5820,170.6713,5.1772,1054.6350,289.5991,19.7925,814.6190,134.2349,-271.8794,1057.2060,48.2233,-475.0378,753.1987,28.8821,-27.9238,682.8428,24.1218,4.8373,287.1280,5.6911,-208.5370,683.9206,107.0339,-195.0338,301.2230,498.3918,-96.8081,718.1947,234.7209,-269.4809,711.7199,0.0000,0.0000,0.0000,18.1741,-237.8303,14.7920,
6,-33.6930,93.8218,967.1300,-115.8261,99.1141,786.9540,-201.0520,102.6690,607.6080,-151.1074,233.2490,806.2510,11.6960,336.7470,654.8137,-80.5490,-35.0150,767.6520,90.0370,-63.1860,608.6406,-308.9940,193.6985,440.7140,-102.8406,549.9370,419.2100,-263.2769,18.7742,415.6770,92.2660,55.4825,365.7360,278.1330,247.7040,686.8412,341.5950,-6.1680,588.2308,-178.6769,498.7270,48.1130,0.0000,0.0000,0.0000,
