ply
format ascii 1.0
comment Author: CloudCompare (TELECOM PARISTECH/EDF R&D)
obj_info Generated by CloudCompare!
element vertex 16
property float x
property float y
property float z
end_header
-95.0253 -23.9684 10.8411 
-100.508 14.5737 -7.56549 
-60.4634 18.3597 -5.81601 
-56.503 -21.6531 31.9669 
22.8382 27.083 13.9694 
1.97034 61.3633 -4.85892 
33.0009 79.0142 -2.98104 
57.4502 50.8387 -6.78718 
73.3673 -43.8832 -0.571165 
103.646 -17.901 0.474307 
121.008 -39.0532 -0.536637 
85.8907 -64.6881 -0.655906 
-89.8405 -110.262 20.0453 
-55.6178 -87.7214 -13.5251 
-35.5165 -128.222 -19.6552 
-75.2168 -140.852 21.386 
