ply
format ascii 1.0
comment Author: CloudCompare (TELECOM PARISTECH/EDF R&D)
obj_info Generated by CloudCompare!
element vertex 4
property float x
property float y
property float z
end_header
23.6029 -187.778 -26.853 
-23.0239 -241.028 131.86 
-138.882 78.7111 144.888 
-73.9032 93.7777 -41.5731 
