%!PS-Adobe-3.0 EPSF-3.0
%%Creator: (MATLAB, The Mathworks, Inc. Version 8.4.0.150421 \(R2014b\). Operating System: Linux)
%%Title: (/scratch/Lasitha/naive_probabilistic/KDE plot.eps)
%%CreationDate: 2015-04-20T13:28:59
%%Pages: (atend)
%%BoundingBox: 0 0 680 425
%%LanguageLevel: 2
%%EndComments
%%BeginProlog
%%BeginResource: procset (Apache XML Graphics Std ProcSet) 1.2 0
%%Version: 1.2 0
%%Copyright: (Copyright 2001-2003,2010 The Apache Software Foundation. License terms: http://www.apache.org/licenses/LICENSE-2.0)
/bd{bind def}bind def
/ld{load def}bd
/GR/grestore ld
/M/moveto ld
/LJ/setlinejoin ld
/C/curveto ld
/f/fill ld
/LW/setlinewidth ld
/GC/setgray ld
/t/show ld
/N/newpath ld
/CT/concat ld
/cp/closepath ld
/S/stroke ld
/L/lineto ld
/CC/setcmykcolor ld
/A/ashow ld
/GS/gsave ld
/RC/setrgbcolor ld
/RM/rmoveto ld
/ML/setmiterlimit ld
/re {4 2 roll M
1 index 0 rlineto
0 exch rlineto
neg 0 rlineto
cp } bd
/_ctm matrix def
/_tm matrix def
/BT { _ctm currentmatrix pop matrix _tm copy pop 0 0 moveto } bd
/ET { _ctm setmatrix } bd
/iTm { _ctm setmatrix _tm concat } bd
/Tm { _tm astore pop iTm 0 0 moveto } bd
/ux 0.0 def
/uy 0.0 def
/F {
  /Tp exch def
  /Tf exch def
  Tf findfont Tp scalefont setfont
  /cf Tf def  /cs Tp def
} bd
/ULS {currentpoint /uy exch def /ux exch def} bd
/ULE {
  /Tcx currentpoint pop def
  gsave
  newpath
  cf findfont cs scalefont dup
  /FontMatrix get 0 get /Ts exch def /FontInfo get dup
  /UnderlinePosition get Ts mul /To exch def
  /UnderlineThickness get Ts mul /Tt exch def
  ux uy To add moveto  Tcx uy To add lineto
  Tt setlinewidth stroke
  grestore
} bd
/OLE {
  /Tcx currentpoint pop def
  gsave
  newpath
  cf findfont cs scalefont dup
  /FontMatrix get 0 get /Ts exch def /FontInfo get dup
  /UnderlinePosition get Ts mul /To exch def
  /UnderlineThickness get Ts mul /Tt exch def
  ux uy To add cs add moveto Tcx uy To add cs add lineto
  Tt setlinewidth stroke
  grestore
} bd
/SOE {
  /Tcx currentpoint pop def
  gsave
  newpath
  cf findfont cs scalefont dup
  /FontMatrix get 0 get /Ts exch def /FontInfo get dup
  /UnderlinePosition get Ts mul /To exch def
  /UnderlineThickness get Ts mul /Tt exch def
  ux uy To add cs 10 mul 26 idiv add moveto Tcx uy To add cs 10 mul 26 idiv add lineto
  Tt setlinewidth stroke
  grestore
} bd
/QT {
/Y22 exch store
/X22 exch store
/Y21 exch store
/X21 exch store
currentpoint
/Y21 load 2 mul add 3 div exch
/X21 load 2 mul add 3 div exch
/X21 load 2 mul /X22 load add 3 div
/Y21 load 2 mul /Y22 load add 3 div
/X22 load /Y22 load curveto
} bd
/SSPD {
dup length /d exch dict def
{
/v exch def
/k exch def
currentpagedevice k known {
/cpdv currentpagedevice k get def
v cpdv ne {
/upd false def
/nullv v type /nulltype eq def
/nullcpdv cpdv type /nulltype eq def
nullv nullcpdv or
{
/upd true def
} {
/sametype v type cpdv type eq def
sametype {
v type /arraytype eq {
/vlen v length def
/cpdvlen cpdv length def
vlen cpdvlen eq {
0 1 vlen 1 sub {
/i exch def
/obj v i get def
/cpdobj cpdv i get def
obj cpdobj ne {
/upd true def
exit
} if
} for
} {
/upd true def
} ifelse
} {
v type /dicttype eq {
v {
/dv exch def
/dk exch def
/cpddv cpdv dk get def
dv cpddv ne {
/upd true def
exit
} if
} forall
} {
/upd true def
} ifelse
} ifelse
} if
} ifelse
upd true eq {
d k v put
} if
} if
} if
} forall
d length 0 gt {
d setpagedevice
} if
} bd
%%EndResource
%%BeginResource: procset (Apache XML Graphics EPS ProcSet) 1.0 0
%%Version: 1.0 0
%%Copyright: (Copyright 2002-2003 The Apache Software Foundation. License terms: http://www.apache.org/licenses/LICENSE-2.0)
/BeginEPSF { %def
/b4_Inc_state save def         % Save state for cleanup
/dict_count countdictstack def % Count objects on dict stack
/op_count count 1 sub def      % Count objects on operand stack
userdict begin                 % Push userdict on dict stack
/showpage { } def              % Redefine showpage, { } = null proc
0 setgray 0 setlinecap         % Prepare graphics state
1 setlinewidth 0 setlinejoin
10 setmiterlimit [ ] 0 setdash newpath
/languagelevel where           % If level not equal to 1 then
{pop languagelevel             % set strokeadjust and
1 ne                           % overprint to their defaults.
{false setstrokeadjust false setoverprint
} if
} if
} bd
/EndEPSF { %def
count op_count sub {pop} repeat            % Clean up stacks
countdictstack dict_count sub {end} repeat
b4_Inc_state restore
} bd
%%EndResource
%FOPBeginFontDict
%%IncludeResource: font Courier-Bold
%%IncludeResource: font Helvetica
%%IncludeResource: font Courier-BoldOblique
%%IncludeResource: font Courier-Oblique
%%IncludeResource: font Times-Roman
%%IncludeResource: font Helvetica-BoldOblique
%%IncludeResource: font Helvetica-Bold
%%IncludeResource: font Helvetica-Oblique
%%IncludeResource: font Times-BoldItalic
%%IncludeResource: font Courier
%%IncludeResource: font Times-Italic
%%IncludeResource: font Times-Bold
%%IncludeResource: font Symbol
%%IncludeResource: font ZapfDingbats
%FOPEndFontDict
%%BeginResource: encoding WinAnsiEncoding
/WinAnsiEncoding [
/.notdef /.notdef /.notdef /.notdef /.notdef
/.notdef /.notdef /.notdef /.notdef /.notdef
/.notdef /.notdef /.notdef /.notdef /.notdef
/.notdef /.notdef /.notdef /.notdef /.notdef
/.notdef /.notdef /.notdef /.notdef /.notdef
/.notdef /.notdef /.notdef /.notdef /.notdef
/.notdef /.notdef /space /exclam /quotedbl
/numbersign /dollar /percent /ampersand /quotesingle
/parenleft /parenright /asterisk /plus /comma
/hyphen /period /slash /zero /one
/two /three /four /five /six
/seven /eight /nine /colon /semicolon
/less /equal /greater /question /at
/A /B /C /D /E
/F /G /H /I /J
/K /L /M /N /O
/P /Q /R /S /T
/U /V /W /X /Y
/Z /bracketleft /backslash /bracketright /asciicircum
/underscore /quoteleft /a /b /c
/d /e /f /g /h
/i /j /k /l /m
/n /o /p /q /r
/s /t /u /v /w
/x /y /z /braceleft /bar
/braceright /asciitilde /bullet /Euro /bullet
/quotesinglbase /florin /quotedblbase /ellipsis /dagger
/daggerdbl /circumflex /perthousand /Scaron /guilsinglleft
/OE /bullet /Zcaron /bullet /bullet
/quoteleft /quoteright /quotedblleft /quotedblright /bullet
/endash /emdash /asciitilde /trademark /scaron
/guilsinglright /oe /bullet /zcaron /Ydieresis
/space /exclamdown /cent /sterling /currency
/yen /brokenbar /section /dieresis /copyright
/ordfeminine /guillemotleft /logicalnot /sfthyphen /registered
/macron /degree /plusminus /twosuperior /threesuperior
/acute /mu /paragraph /middot /cedilla
/onesuperior /ordmasculine /guillemotright /onequarter /onehalf
/threequarters /questiondown /Agrave /Aacute /Acircumflex
/Atilde /Adieresis /Aring /AE /Ccedilla
/Egrave /Eacute /Ecircumflex /Edieresis /Igrave
/Iacute /Icircumflex /Idieresis /Eth /Ntilde
/Ograve /Oacute /Ocircumflex /Otilde /Odieresis
/multiply /Oslash /Ugrave /Uacute /Ucircumflex
/Udieresis /Yacute /Thorn /germandbls /agrave
/aacute /acircumflex /atilde /adieresis /aring
/ae /ccedilla /egrave /eacute /ecircumflex
/edieresis /igrave /iacute /icircumflex /idieresis
/eth /ntilde /ograve /oacute /ocircumflex
/otilde /odieresis /divide /oslash /ugrave
/uacute /ucircumflex /udieresis /yacute /thorn
/ydieresis
] def
%%EndResource
%FOPBeginFontReencode
/Courier-Bold findfont
dup length dict begin
  {1 index /FID ne {def} {pop pop} ifelse} forall
  /Encoding WinAnsiEncoding def
  currentdict
end
/Courier-Bold exch definefont pop
/Helvetica findfont
dup length dict begin
  {1 index /FID ne {def} {pop pop} ifelse} forall
  /Encoding WinAnsiEncoding def
  currentdict
end
/Helvetica exch definefont pop
/Courier-BoldOblique findfont
dup length dict begin
  {1 index /FID ne {def} {pop pop} ifelse} forall
  /Encoding WinAnsiEncoding def
  currentdict
end
/Courier-BoldOblique exch definefont pop
/Courier-Oblique findfont
dup length dict begin
  {1 index /FID ne {def} {pop pop} ifelse} forall
  /Encoding WinAnsiEncoding def
  currentdict
end
/Courier-Oblique exch definefont pop
/Times-Roman findfont
dup length dict begin
  {1 index /FID ne {def} {pop pop} ifelse} forall
  /Encoding WinAnsiEncoding def
  currentdict
end
/Times-Roman exch definefont pop
/Helvetica-BoldOblique findfont
dup length dict begin
  {1 index /FID ne {def} {pop pop} ifelse} forall
  /Encoding WinAnsiEncoding def
  currentdict
end
/Helvetica-BoldOblique exch definefont pop
/Helvetica-Bold findfont
dup length dict begin
  {1 index /FID ne {def} {pop pop} ifelse} forall
  /Encoding WinAnsiEncoding def
  currentdict
end
/Helvetica-Bold exch definefont pop
/Helvetica-Oblique findfont
dup length dict begin
  {1 index /FID ne {def} {pop pop} ifelse} forall
  /Encoding WinAnsiEncoding def
  currentdict
end
/Helvetica-Oblique exch definefont pop
/Times-BoldItalic findfont
dup length dict begin
  {1 index /FID ne {def} {pop pop} ifelse} forall
  /Encoding WinAnsiEncoding def
  currentdict
end
/Times-BoldItalic exch definefont pop
/Courier findfont
dup length dict begin
  {1 index /FID ne {def} {pop pop} ifelse} forall
  /Encoding WinAnsiEncoding def
  currentdict
end
/Courier exch definefont pop
/Times-Italic findfont
dup length dict begin
  {1 index /FID ne {def} {pop pop} ifelse} forall
  /Encoding WinAnsiEncoding def
  currentdict
end
/Times-Italic exch definefont pop
/Times-Bold findfont
dup length dict begin
  {1 index /FID ne {def} {pop pop} ifelse} forall
  /Encoding WinAnsiEncoding def
  currentdict
end
/Times-Bold exch definefont pop
%FOPEndFontReencode
%%EndProlog
%%Page: 1 1
%%PageBoundingBox: 0 0 680 425
%%BeginPageSetup
[1 0 0 -1 0 425] CT
%%EndPageSetup
GS
[0.72727 0 0 0.72727 0 0.27274] CT
1 GC
N
0 0 935 584 re
f
GR
GS
[0.72727 0 0 0.72727 0 0.27274] CT
1 GC
N
0 0 935 584 re
f
GR
GS
[0.72727 0 0 0.72727 0 0.27274] CT
1 GC
N
122 520 M
846 520 L
846 44 L
122 44 L
cp
f
GR
GS
[0.72727 0 0 0.72727 352 394.57457] CT
0.149 GC
/Helvetica 17 F
GS
[1 0 0 1 0 0] CT
-55.698 16.153 moveto 
1 -1 scale
(Measurement) t 
GR
GR
GS
[0.72727 0 0 0.72727 0 0.27274] CT
0.149 GC
2 setlinecap
10.0 ML
N
122 520 M
846 520 L
S
GR
GS
[0.72727 0 0 0.72727 0 0.27274] CT
0.149 GC
2 setlinecap
10.0 ML
N
122 44 M
846 44 L
S
GR
GS
[0.72727 0 0 0.72727 0 0.27274] CT
0.149 GC
2 setlinecap
10.0 ML
N
122 520 M
122 512.76 L
S
GR
GS
[0.72727 0 0 0.72727 0 0.27274] CT
0.149 GC
2 setlinecap
10.0 ML
N
122 44 M
122 51.24 L
S
GR
GS
[0.72727 0 0 0.72727 0 0.27274] CT
0.149 GC
2 setlinecap
10.0 ML
N
225.429 520 M
225.429 512.76 L
S
GR
GS
[0.72727 0 0 0.72727 0 0.27274] CT
0.149 GC
2 setlinecap
10.0 ML
N
225.429 44 M
225.429 51.24 L
S
GR
GS
[0.72727 0 0 0.72727 0 0.27274] CT
0.149 GC
2 setlinecap
10.0 ML
N
328.857 520 M
328.857 512.76 L
S
GR
GS
[0.72727 0 0 0.72727 0 0.27274] CT
0.149 GC
2 setlinecap
10.0 ML
N
328.857 44 M
328.857 51.24 L
S
GR
GS
[0.72727 0 0 0.72727 0 0.27274] CT
0.149 GC
2 setlinecap
10.0 ML
N
432.286 520 M
432.286 512.76 L
S
GR
GS
[0.72727 0 0 0.72727 0 0.27274] CT
0.149 GC
2 setlinecap
10.0 ML
N
432.286 44 M
432.286 51.24 L
S
GR
GS
[0.72727 0 0 0.72727 0 0.27274] CT
0.149 GC
2 setlinecap
10.0 ML
N
535.714 520 M
535.714 512.76 L
S
GR
GS
[0.72727 0 0 0.72727 0 0.27274] CT
0.149 GC
2 setlinecap
10.0 ML
N
535.714 44 M
535.714 51.24 L
S
GR
GS
[0.72727 0 0 0.72727 0 0.27274] CT
0.149 GC
2 setlinecap
10.0 ML
N
639.143 520 M
639.143 512.76 L
S
GR
GS
[0.72727 0 0 0.72727 0 0.27274] CT
0.149 GC
2 setlinecap
10.0 ML
N
639.143 44 M
639.143 51.24 L
S
GR
GS
[0.72727 0 0 0.72727 0 0.27274] CT
0.149 GC
2 setlinecap
10.0 ML
N
742.571 520 M
742.571 512.76 L
S
GR
GS
[0.72727 0 0 0.72727 0 0.27274] CT
0.149 GC
2 setlinecap
10.0 ML
N
742.571 44 M
742.571 51.24 L
S
GR
GS
[0.72727 0 0 0.72727 0 0.27274] CT
0.149 GC
2 setlinecap
10.0 ML
N
846 520 M
846 512.76 L
S
GR
GS
[0.72727 0 0 0.72727 0 0.27274] CT
0.149 GC
2 setlinecap
10.0 ML
N
846 44 M
846 51.24 L
S
GR
GS
[0.72727 0 0 0.72727 88.72727 382.45455] CT
0.149 GC
/Helvetica 14 F
GS
[1 0 0 1 0 0] CT
-15.118 13.303 moveto 
1 -1 scale
(-0.5) t 
GR
GR
GS
[0.72727 0 0 0.72727 163.94805 382.45455] CT
0.149 GC
/Helvetica 14 F
GS
[1 0 0 1 0 0] CT
-4.426 13.303 moveto 
1 -1 scale
(0) t 
GR
GR
GS
[0.72727 0 0 0.72727 239.16883 382.45455] CT
0.149 GC
/Helvetica 14 F
GS
[1 0 0 1 0 0] CT
-11.067 13.303 moveto 
1 -1 scale
(0.5) t 
GR
GR
GS
[0.72727 0 0 0.72727 314.3896 382.45455] CT
0.149 GC
/Helvetica 14 F
GS
[1 0 0 1 0 0] CT
-4.426 13.303 moveto 
1 -1 scale
(1) t 
GR
GR
GS
[0.72727 0 0 0.72727 389.6104 382.45455] CT
0.149 GC
/Helvetica 14 F
GS
[1 0 0 1 0 0] CT
-11.067 13.303 moveto 
1 -1 scale
(1.5) t 
GR
GR
GS
[0.72727 0 0 0.72727 464.83119 382.45455] CT
0.149 GC
/Helvetica 14 F
GS
[1 0 0 1 0 0] CT
-4.426 13.303 moveto 
1 -1 scale
(2) t 
GR
GR
GS
[0.72727 0 0 0.72727 540.05194 382.45455] CT
0.149 GC
/Helvetica 14 F
GS
[1 0 0 1 0 0] CT
-11.067 13.303 moveto 
1 -1 scale
(2.5) t 
GR
GR
GS
[0.72727 0 0 0.72727 615.27273 382.45455] CT
0.149 GC
/Helvetica 14 F
GS
[1 0 0 1 0 0] CT
-4.426 13.303 moveto 
1 -1 scale
(3) t 
GR
GR
GS
[0 -0.72727 0.72727 0 65.62926 205.36364] CT
0.149 GC
/Helvetica 17 F
GS
[1 0 0 1 0 0] CT
-30.788 -3.627 moveto 
1 -1 scale
(Density) t 
GR
GR
GS
[0.72727 0 0 0.72727 0 0.27274] CT
0.149 GC
2 setlinecap
10.0 ML
N
122 520 M
122 44 L
S
GR
GS
[0.72727 0 0 0.72727 0 0.27274] CT
0.149 GC
2 setlinecap
10.0 ML
N
846 520 M
846 44 L
S
GR
GS
[0.72727 0 0 0.72727 0 0.27274] CT
0.149 GC
2 setlinecap
10.0 ML
N
122 520 M
129.24 520 L
S
GR
GS
[0.72727 0 0 0.72727 0 0.27274] CT
0.149 GC
2 setlinecap
10.0 ML
N
846 520 M
838.76 520 L
S
GR
GS
[0.72727 0 0 0.72727 0 0.27274] CT
0.149 GC
2 setlinecap
10.0 ML
N
122 452 M
129.24 452 L
S
GR
GS
[0.72727 0 0 0.72727 0 0.27274] CT
0.149 GC
2 setlinecap
10.0 ML
N
846 452 M
838.76 452 L
S
GR
GS
[0.72727 0 0 0.72727 0 0.27274] CT
0.149 GC
2 setlinecap
10.0 ML
N
122 384 M
129.24 384 L
S
GR
GS
[0.72727 0 0 0.72727 0 0.27274] CT
0.149 GC
2 setlinecap
10.0 ML
N
846 384 M
838.76 384 L
S
GR
GS
[0.72727 0 0 0.72727 0 0.27274] CT
0.149 GC
2 setlinecap
10.0 ML
N
122 316 M
129.24 316 L
S
GR
GS
[0.72727 0 0 0.72727 0 0.27274] CT
0.149 GC
2 setlinecap
10.0 ML
N
846 316 M
838.76 316 L
S
GR
GS
[0.72727 0 0 0.72727 0 0.27274] CT
0.149 GC
2 setlinecap
10.0 ML
N
122 248 M
129.24 248 L
S
GR
GS
[0.72727 0 0 0.72727 0 0.27274] CT
0.149 GC
2 setlinecap
10.0 ML
N
846 248 M
838.76 248 L
S
GR
GS
[0.72727 0 0 0.72727 0 0.27274] CT
0.149 GC
2 setlinecap
10.0 ML
N
122 180 M
129.24 180 L
S
GR
GS
[0.72727 0 0 0.72727 0 0.27274] CT
0.149 GC
2 setlinecap
10.0 ML
N
846 180 M
838.76 180 L
S
GR
GS
[0.72727 0 0 0.72727 0 0.27274] CT
0.149 GC
2 setlinecap
10.0 ML
N
122 112 M
129.24 112 L
S
GR
GS
[0.72727 0 0 0.72727 0 0.27274] CT
0.149 GC
2 setlinecap
10.0 ML
N
846 112 M
838.76 112 L
S
GR
GS
[0.72727 0 0 0.72727 0 0.27274] CT
0.149 GC
2 setlinecap
10.0 ML
N
122 44 M
129.24 44 L
S
GR
GS
[0.72727 0 0 0.72727 0 0.27274] CT
0.149 GC
2 setlinecap
10.0 ML
N
846 44 M
838.76 44 L
S
GR
GS
[0.72727 0 0 0.72727 84.72727 378.45455] CT
0.149 GC
/Helvetica 14 F
GS
[1 0 0 1 0 0] CT
-8.853 5.658 moveto 
1 -1 scale
(0) t 
GR
GR
GS
[0.72727 0 0 0.72727 84.72727 329] CT
0.149 GC
/Helvetica 14 F
GS
[1 0 0 1 0 0] CT
-22.135 5.658 moveto 
1 -1 scale
(0.2) t 
GR
GR
GS
[0.72727 0 0 0.72727 84.72727 279.54546] CT
0.149 GC
/Helvetica 14 F
GS
[1 0 0 1 0 0] CT
-22.135 5.658 moveto 
1 -1 scale
(0.4) t 
GR
GR
GS
[0.72727 0 0 0.72727 84.72727 230.09091] CT
0.149 GC
/Helvetica 14 F
GS
[1 0 0 1 0 0] CT
-22.135 5.658 moveto 
1 -1 scale
(0.6) t 
GR
GR
GS
[0.72727 0 0 0.72727 84.72727 180.63637] CT
0.149 GC
/Helvetica 14 F
GS
[1 0 0 1 0 0] CT
-22.135 5.658 moveto 
1 -1 scale
(0.8) t 
GR
GR
GS
[0.72727 0 0 0.72727 84.72727 131.18182] CT
0.149 GC
/Helvetica 14 F
GS
[1 0 0 1 0 0] CT
-8.853 5.658 moveto 
1 -1 scale
(1) t 
GR
GR
GS
[0.72727 0 0 0.72727 84.72727 81.72727] CT
0.149 GC
/Helvetica 14 F
GS
[1 0 0 1 0 0] CT
-22.135 5.658 moveto 
1 -1 scale
(1.2) t 
GR
GR
GS
[0.72727 0 0 0.72727 84.72727 32.27274] CT
0.149 GC
/Helvetica 14 F
GS
[1 0 0 1 0 0] CT
-22.135 5.658 moveto 
1 -1 scale
(1.4) t 
GR
GR
GS
[0.72727 0 0 0.72727 0 0.27274] CT
0.838 0.899 0.974 RC
N
225.429 520 M
225.429 107.317 L
328.857 107.317 L
328.857 520 L
cp
f
GR
GS
[0.72727 0 0 0.72727 0 0.27274] CT
0.838 0.899 0.974 RC
N
328.857 520 M
328.857 389.268 L
432.286 389.268 L
432.286 520 L
cp
f
GR
GS
[0.72727 0 0 0.72727 0 0.27274] CT
0.838 0.899 0.974 RC
N
432.286 520 M
432.286 428.293 L
535.714 428.293 L
535.714 520 L
cp
f
GR
GS
[0.72727 0 0 0.72727 0 0.27274] CT
0.838 0.899 0.974 RC
N
535.714 520 M
535.714 486.829 L
639.143 486.829 L
639.143 520 L
cp
f
GR
GS
[0.72727 0 0 0.72727 0 0.27274] CT
0.838 0.899 0.974 RC
N
639.143 520 M
639.143 508.293 L
742.571 508.293 L
742.571 520 L
cp
f
GR
GS
[0.72727 0 0 0.72727 0 0.27274] CT
2 setlinecap
10.0 ML
N
225.429 520 M
225.429 107.317 L
328.857 107.317 L
328.857 520 L
S
GR
GS
[0.72727 0 0 0.72727 0 0.27274] CT
2 setlinecap
10.0 ML
N
328.857 520 M
328.857 389.268 L
432.286 389.268 L
432.286 520 L
S
GR
GS
[0.72727 0 0 0.72727 0 0.27274] CT
2 setlinecap
10.0 ML
N
432.286 520 M
432.286 428.293 L
535.714 428.293 L
535.714 520 L
S
GR
GS
[0.72727 0 0 0.72727 0 0.27274] CT
2 setlinecap
10.0 ML
N
535.714 520 M
535.714 486.829 L
639.143 486.829 L
639.143 520 L
S
GR
GS
[0.72727 0 0 0.72727 0 0.27274] CT
2 setlinecap
10.0 ML
N
639.143 520 M
639.143 508.293 L
742.571 508.293 L
742.571 520 L
S
GR
GS
[0.72727 0 0 0.72727 0 0.27274] CT
2 setlinecap
10.0 ML
2.063 LW
N
122 474.118 M
132.343 465.954 L
142.686 456.867 L
153.029 446.867 L
163.371 435.987 L
173.714 424.291 L
184.057 411.875 L
194.4 398.865 L
204.743 385.419 L
215.086 371.725 L
225.429 357.998 L
235.771 344.472 L
246.114 331.4 L
256.457 319.041 L
266.8 307.654 L
277.143 297.489 L
287.486 288.778 L
297.829 281.726 L
308.171 276.503 L
318.514 273.236 L
328.857 272.006 L
339.2 272.845 L
349.543 275.731 L
359.886 280.592 L
370.229 287.309 L
380.571 295.72 L
390.914 305.627 L
401.257 316.801 L
411.6 328.995 L
421.943 341.952 L
432.286 355.412 L
442.629 369.12 L
452.971 382.838 L
463.314 396.346 L
473.657 409.452 L
484 421.991 L
494.343 433.831 L
504.686 444.871 L
515.029 455.042 L
525.371 464.303 L
535.714 472.642 L
546.057 480.067 L
556.4 486.608 L
566.743 492.31 L
577.086 497.23 L
587.429 501.431 L
597.771 504.983 L
608.114 507.957 L
618.457 510.422 L
628.8 512.446 L
639.143 514.092 L
649.486 515.418 L
659.829 516.476 L
670.171 517.312 L
680.514 517.967 L
690.857 518.475 L
701.2 518.865 L
711.543 519.163 L
721.886 519.388 L
732.229 519.556 L
742.571 519.68 L
752.914 519.772 L
763.257 519.839 L
773.6 519.887 L
783.943 519.921 L
794.286 519.946 L
804.629 519.963 L
814.971 519.975 L
825.314 519.983 L
835.657 519.989 L
846 519.992 L
S
GR
GS
[0.72727 0 0 0.72727 0 0.27274] CT
1 0 0 RC
2 setlinecap
10.0 ML
2.75 LW
N
122 519.252 M
132.343 517.737 L
142.686 513.873 L
153.029 505.162 L
163.371 487.824 L
173.714 457.451 L
184.057 410.849 L
194.4 348.637 L
204.743 277.265 L
215.086 208.445 L
225.429 155.508 L
235.771 128.036 L
246.114 128.06 L
256.457 150.096 L
266.8 184.522 L
277.143 222.028 L
287.486 256.327 L
297.829 284.649 L
308.171 306.7 L
318.514 323.508 L
328.857 336.627 L
339.2 347.719 L
349.543 358.204 L
359.886 368.919 L
370.229 379.928 L
380.571 390.604 L
390.914 400.001 L
401.257 407.338 L
411.6 412.365 L
421.943 415.441 L
432.286 417.325 L
442.629 418.834 L
452.971 420.569 L
463.314 422.844 L
473.657 425.778 L
484 429.468 L
494.343 434.065 L
504.686 439.683 L
515.029 446.21 L
525.371 453.2 L
535.714 459.955 L
546.057 465.825 L
556.4 470.54 L
566.743 474.368 L
577.086 477.981 L
587.429 482.079 L
597.771 486.973 L
608.114 492.393 L
618.457 497.631 L
628.8 501.92 L
639.143 504.823 L
649.486 506.386 L
659.829 507.031 L
670.171 507.294 L
680.514 507.617 L
690.857 508.263 L
701.2 509.333 L
711.543 510.806 L
721.886 512.564 L
732.229 514.413 L
742.571 516.136 L
752.914 517.558 L
763.257 518.598 L
773.6 519.271 L
783.943 519.659 L
794.286 519.856 L
804.629 519.945 L
814.971 519.981 L
825.314 519.994 L
835.657 519.998 L
846 520 L
S
GR
GS
[0.72727 0 0 0.72727 0 0.27274] CT
1 0 0 RC
2 setlinecap
10.0 ML
2.75 LW
N
126.625 519.5 M
125.837 517.075 L
123.775 515.577 L
121.225 515.577 L
119.163 517.075 L
118.375 519.5 L
119.163 521.925 L
121.225 523.423 L
123.775 523.423 L
125.837 521.925 L
126.625 519.5 L
S
GR
GS
[0.72727 0 0 0.72727 0 0.27274] CT
1 0 0 RC
2 setlinecap
10.0 ML
2.75 LW
N
136.625 517.5 M
135.837 515.075 L
133.775 513.577 L
131.225 513.577 L
129.163 515.075 L
128.375 517.5 L
129.163 519.925 L
131.225 521.423 L
133.775 521.423 L
135.837 519.925 L
136.625 517.5 L
S
GR
GS
[0.72727 0 0 0.72727 0 0.27274] CT
1 0 0 RC
2 setlinecap
10.0 ML
2.75 LW
N
146.625 513.5 M
145.837 511.075 L
143.775 509.577 L
141.225 509.577 L
139.163 511.075 L
138.375 513.5 L
139.163 515.925 L
141.225 517.423 L
143.775 517.423 L
145.837 515.925 L
146.625 513.5 L
S
GR
GS
[0.72727 0 0 0.72727 0 0.27274] CT
1 0 0 RC
2 setlinecap
10.0 ML
2.75 LW
N
157.625 505.5 M
156.837 503.075 L
154.775 501.577 L
152.225 501.577 L
150.163 503.075 L
149.375 505.5 L
150.163 507.925 L
152.225 509.423 L
154.775 509.423 L
156.837 507.925 L
157.625 505.5 L
S
GR
GS
[0.72727 0 0 0.72727 0 0.27274] CT
1 0 0 RC
2 setlinecap
10.0 ML
2.75 LW
N
167.625 487.5 M
166.837 485.075 L
164.775 483.577 L
162.225 483.577 L
160.163 485.075 L
159.375 487.5 L
160.163 489.925 L
162.225 491.423 L
164.775 491.423 L
166.837 489.925 L
167.625 487.5 L
S
GR
GS
[0.72727 0 0 0.72727 0 0.27274] CT
1 0 0 RC
2 setlinecap
10.0 ML
2.75 LW
N
177.625 457.5 M
176.837 455.075 L
174.775 453.577 L
172.225 453.577 L
170.163 455.075 L
169.375 457.5 L
170.163 459.925 L
172.225 461.423 L
174.775 461.423 L
176.837 459.925 L
177.625 457.5 L
S
GR
GS
[0.72727 0 0 0.72727 0 0.27274] CT
1 0 0 RC
2 setlinecap
10.0 ML
2.75 LW
N
188.625 410.5 M
187.837 408.075 L
185.775 406.577 L
183.225 406.577 L
181.163 408.075 L
180.375 410.5 L
181.163 412.925 L
183.225 414.423 L
185.775 414.423 L
187.837 412.925 L
188.625 410.5 L
S
GR
GS
[0.72727 0 0 0.72727 0 0.27274] CT
1 0 0 RC
2 setlinecap
10.0 ML
2.75 LW
N
198.625 348.5 M
197.837 346.075 L
195.775 344.577 L
193.225 344.577 L
191.163 346.075 L
190.375 348.5 L
191.163 350.925 L
193.225 352.423 L
195.775 352.423 L
197.837 350.925 L
198.625 348.5 L
S
GR
GS
[0.72727 0 0 0.72727 0 0.27274] CT
1 0 0 RC
2 setlinecap
10.0 ML
2.75 LW
N
208.625 277.5 M
207.837 275.075 L
205.775 273.577 L
203.225 273.577 L
201.163 275.075 L
200.375 277.5 L
201.163 279.925 L
203.225 281.423 L
205.775 281.423 L
207.837 279.925 L
208.625 277.5 L
S
GR
GS
[0.72727 0 0 0.72727 0 0.27274] CT
1 0 0 RC
2 setlinecap
10.0 ML
2.75 LW
N
219.625 208.5 M
218.837 206.075 L
216.775 204.577 L
214.225 204.577 L
212.163 206.075 L
211.375 208.5 L
212.163 210.925 L
214.225 212.423 L
216.775 212.423 L
218.837 210.925 L
219.625 208.5 L
S
GR
GS
[0.72727 0 0 0.72727 0 0.27274] CT
1 0 0 RC
2 setlinecap
10.0 ML
2.75 LW
N
229.625 155.5 M
228.837 153.075 L
226.775 151.577 L
224.225 151.577 L
222.163 153.075 L
221.375 155.5 L
222.163 157.925 L
224.225 159.423 L
226.775 159.423 L
228.837 157.925 L
229.625 155.5 L
S
GR
GS
[0.72727 0 0 0.72727 0 0.27274] CT
1 0 0 RC
2 setlinecap
10.0 ML
2.75 LW
N
239.625 128.5 M
238.837 126.075 L
236.775 124.577 L
234.225 124.577 L
232.163 126.075 L
231.375 128.5 L
232.163 130.925 L
234.225 132.423 L
236.775 132.423 L
238.837 130.925 L
239.625 128.5 L
S
GR
GS
[0.72727 0 0 0.72727 0 0.27274] CT
1 0 0 RC
2 setlinecap
10.0 ML
2.75 LW
N
250.625 128.5 M
249.837 126.075 L
247.775 124.577 L
245.225 124.577 L
243.163 126.075 L
242.375 128.5 L
243.163 130.925 L
245.225 132.423 L
247.775 132.423 L
249.837 130.925 L
250.625 128.5 L
S
GR
GS
[0.72727 0 0 0.72727 0 0.27274] CT
1 0 0 RC
2 setlinecap
10.0 ML
2.75 LW
N
260.625 150.5 M
259.837 148.075 L
257.775 146.577 L
255.225 146.577 L
253.163 148.075 L
252.375 150.5 L
253.163 152.925 L
255.225 154.423 L
257.775 154.423 L
259.837 152.925 L
260.625 150.5 L
S
GR
GS
[0.72727 0 0 0.72727 0 0.27274] CT
1 0 0 RC
2 setlinecap
10.0 ML
2.75 LW
N
270.625 184.5 M
269.837 182.075 L
267.775 180.577 L
265.225 180.577 L
263.163 182.075 L
262.375 184.5 L
263.163 186.925 L
265.225 188.423 L
267.775 188.423 L
269.837 186.925 L
270.625 184.5 L
S
GR
GS
[0.72727 0 0 0.72727 0 0.27274] CT
1 0 0 RC
2 setlinecap
10.0 ML
2.75 LW
N
281.625 222.5 M
280.837 220.075 L
278.775 218.577 L
276.225 218.577 L
274.163 220.075 L
273.375 222.5 L
274.163 224.925 L
276.225 226.423 L
278.775 226.423 L
280.837 224.925 L
281.625 222.5 L
S
GR
GS
[0.72727 0 0 0.72727 0 0.27274] CT
1 0 0 RC
2 setlinecap
10.0 ML
2.75 LW
N
291.625 256.5 M
290.837 254.075 L
288.775 252.577 L
286.225 252.577 L
284.163 254.075 L
283.375 256.5 L
284.163 258.925 L
286.225 260.423 L
288.775 260.423 L
290.837 258.925 L
291.625 256.5 L
S
GR
GS
[0.72727 0 0 0.72727 0 0.27274] CT
1 0 0 RC
2 setlinecap
10.0 ML
2.75 LW
N
301.625 284.5 M
300.837 282.075 L
298.775 280.577 L
296.225 280.577 L
294.163 282.075 L
293.375 284.5 L
294.163 286.925 L
296.225 288.423 L
298.775 288.423 L
300.837 286.925 L
301.625 284.5 L
S
GR
GS
[0.72727 0 0 0.72727 0 0.27274] CT
1 0 0 RC
2 setlinecap
10.0 ML
2.75 LW
N
312.625 306.5 M
311.837 304.075 L
309.775 302.577 L
307.225 302.577 L
305.163 304.075 L
304.375 306.5 L
305.163 308.925 L
307.225 310.423 L
309.775 310.423 L
311.837 308.925 L
312.625 306.5 L
S
GR
GS
[0.72727 0 0 0.72727 0 0.27274] CT
1 0 0 RC
2 setlinecap
10.0 ML
2.75 LW
N
322.625 323.5 M
321.837 321.075 L
319.775 319.577 L
317.225 319.577 L
315.163 321.075 L
314.375 323.5 L
315.163 325.925 L
317.225 327.423 L
319.775 327.423 L
321.837 325.925 L
322.625 323.5 L
S
GR
GS
[0.72727 0 0 0.72727 0 0.27274] CT
1 0 0 RC
2 setlinecap
10.0 ML
2.75 LW
N
332.625 336.5 M
331.837 334.075 L
329.775 332.577 L
327.225 332.577 L
325.163 334.075 L
324.375 336.5 L
325.163 338.925 L
327.225 340.423 L
329.775 340.423 L
331.837 338.925 L
332.625 336.5 L
S
GR
GS
[0.72727 0 0 0.72727 0 0.27274] CT
1 0 0 RC
2 setlinecap
10.0 ML
2.75 LW
N
343.625 347.5 M
342.837 345.075 L
340.775 343.577 L
338.225 343.577 L
336.163 345.075 L
335.375 347.5 L
336.163 349.925 L
338.225 351.423 L
340.775 351.423 L
342.837 349.925 L
343.625 347.5 L
S
GR
GS
[0.72727 0 0 0.72727 0 0.27274] CT
1 0 0 RC
2 setlinecap
10.0 ML
2.75 LW
N
353.625 358.5 M
352.837 356.075 L
350.775 354.577 L
348.225 354.577 L
346.163 356.075 L
345.375 358.5 L
346.163 360.925 L
348.225 362.423 L
350.775 362.423 L
352.837 360.925 L
353.625 358.5 L
S
GR
GS
[0.72727 0 0 0.72727 0 0.27274] CT
1 0 0 RC
2 setlinecap
10.0 ML
2.75 LW
N
363.625 368.5 M
362.837 366.075 L
360.775 364.577 L
358.225 364.577 L
356.163 366.075 L
355.375 368.5 L
356.163 370.925 L
358.225 372.423 L
360.775 372.423 L
362.837 370.925 L
363.625 368.5 L
S
GR
GS
[0.72727 0 0 0.72727 0 0.27274] CT
1 0 0 RC
2 setlinecap
10.0 ML
2.75 LW
N
374.625 379.5 M
373.837 377.075 L
371.775 375.577 L
369.225 375.577 L
367.163 377.075 L
366.375 379.5 L
367.163 381.925 L
369.225 383.423 L
371.775 383.423 L
373.837 381.925 L
374.625 379.5 L
S
GR
GS
[0.72727 0 0 0.72727 0 0.27274] CT
1 0 0 RC
2 setlinecap
10.0 ML
2.75 LW
N
384.625 390.5 M
383.837 388.075 L
381.775 386.577 L
379.225 386.577 L
377.163 388.075 L
376.375 390.5 L
377.163 392.925 L
379.225 394.423 L
381.775 394.423 L
383.837 392.925 L
384.625 390.5 L
S
GR
GS
[0.72727 0 0 0.72727 0 0.27274] CT
1 0 0 RC
2 setlinecap
10.0 ML
2.75 LW
N
394.625 400.5 M
393.837 398.075 L
391.775 396.577 L
389.225 396.577 L
387.163 398.075 L
386.375 400.5 L
387.163 402.925 L
389.225 404.423 L
391.775 404.423 L
393.837 402.925 L
394.625 400.5 L
S
GR
GS
[0.72727 0 0 0.72727 0 0.27274] CT
1 0 0 RC
2 setlinecap
10.0 ML
2.75 LW
N
405.625 407.5 M
404.837 405.075 L
402.775 403.577 L
400.225 403.577 L
398.163 405.075 L
397.375 407.5 L
398.163 409.925 L
400.225 411.423 L
402.775 411.423 L
404.837 409.925 L
405.625 407.5 L
S
GR
GS
[0.72727 0 0 0.72727 0 0.27274] CT
1 0 0 RC
2 setlinecap
10.0 ML
2.75 LW
N
415.625 412.5 M
414.837 410.075 L
412.775 408.577 L
410.225 408.577 L
408.163 410.075 L
407.375 412.5 L
408.163 414.925 L
410.225 416.423 L
412.775 416.423 L
414.837 414.925 L
415.625 412.5 L
S
GR
GS
[0.72727 0 0 0.72727 0 0.27274] CT
1 0 0 RC
2 setlinecap
10.0 ML
2.75 LW
N
425.625 415.5 M
424.837 413.075 L
422.775 411.577 L
420.225 411.577 L
418.163 413.075 L
417.375 415.5 L
418.163 417.925 L
420.225 419.423 L
422.775 419.423 L
424.837 417.925 L
425.625 415.5 L
S
GR
GS
[0.72727 0 0 0.72727 0 0.27274] CT
1 0 0 RC
2 setlinecap
10.0 ML
2.75 LW
N
436.625 417.5 M
435.837 415.075 L
433.775 413.577 L
431.225 413.577 L
429.163 415.075 L
428.375 417.5 L
429.163 419.925 L
431.225 421.423 L
433.775 421.423 L
435.837 419.925 L
436.625 417.5 L
S
GR
GS
[0.72727 0 0 0.72727 0 0.27274] CT
1 0 0 RC
2 setlinecap
10.0 ML
2.75 LW
N
446.625 418.5 M
445.837 416.075 L
443.775 414.577 L
441.225 414.577 L
439.163 416.075 L
438.375 418.5 L
439.163 420.925 L
441.225 422.423 L
443.775 422.423 L
445.837 420.925 L
446.625 418.5 L
S
GR
GS
[0.72727 0 0 0.72727 0 0.27274] CT
1 0 0 RC
2 setlinecap
10.0 ML
2.75 LW
N
456.625 420.5 M
455.837 418.075 L
453.775 416.577 L
451.225 416.577 L
449.163 418.075 L
448.375 420.5 L
449.163 422.925 L
451.225 424.423 L
453.775 424.423 L
455.837 422.925 L
456.625 420.5 L
S
GR
GS
[0.72727 0 0 0.72727 0 0.27274] CT
1 0 0 RC
2 setlinecap
10.0 ML
2.75 LW
N
467.625 422.5 M
466.837 420.075 L
464.775 418.577 L
462.225 418.577 L
460.163 420.075 L
459.375 422.5 L
460.163 424.925 L
462.225 426.423 L
464.775 426.423 L
466.837 424.925 L
467.625 422.5 L
S
GR
GS
[0.72727 0 0 0.72727 0 0.27274] CT
1 0 0 RC
2 setlinecap
10.0 ML
2.75 LW
N
477.625 425.5 M
476.837 423.075 L
474.775 421.577 L
472.225 421.577 L
470.163 423.075 L
469.375 425.5 L
470.163 427.925 L
472.225 429.423 L
474.775 429.423 L
476.837 427.925 L
477.625 425.5 L
S
GR
GS
[0.72727 0 0 0.72727 0 0.27274] CT
1 0 0 RC
2 setlinecap
10.0 ML
2.75 LW
N
487.625 429.5 M
486.837 427.075 L
484.775 425.577 L
482.225 425.577 L
480.163 427.075 L
479.375 429.5 L
480.163 431.925 L
482.225 433.423 L
484.775 433.423 L
486.837 431.925 L
487.625 429.5 L
S
GR
GS
[0.72727 0 0 0.72727 0 0.27274] CT
1 0 0 RC
2 setlinecap
10.0 ML
2.75 LW
N
498.625 434.5 M
497.837 432.075 L
495.775 430.577 L
493.225 430.577 L
491.163 432.075 L
490.375 434.5 L
491.163 436.925 L
493.225 438.423 L
495.775 438.423 L
497.837 436.925 L
498.625 434.5 L
S
GR
GS
[0.72727 0 0 0.72727 0 0.27274] CT
1 0 0 RC
2 setlinecap
10.0 ML
2.75 LW
N
508.625 439.5 M
507.837 437.075 L
505.775 435.577 L
503.225 435.577 L
501.163 437.075 L
500.375 439.5 L
501.163 441.925 L
503.225 443.423 L
505.775 443.423 L
507.837 441.925 L
508.625 439.5 L
S
GR
GS
[0.72727 0 0 0.72727 0 0.27274] CT
1 0 0 RC
2 setlinecap
10.0 ML
2.75 LW
N
519.625 446.5 M
518.837 444.075 L
516.775 442.577 L
514.225 442.577 L
512.163 444.075 L
511.375 446.5 L
512.163 448.925 L
514.225 450.423 L
516.775 450.423 L
518.837 448.925 L
519.625 446.5 L
S
GR
GS
[0.72727 0 0 0.72727 0 0.27274] CT
1 0 0 RC
2 setlinecap
10.0 ML
2.75 LW
N
529.625 453.5 M
528.837 451.075 L
526.775 449.577 L
524.225 449.577 L
522.163 451.075 L
521.375 453.5 L
522.163 455.925 L
524.225 457.423 L
526.775 457.423 L
528.837 455.925 L
529.625 453.5 L
S
GR
GS
[0.72727 0 0 0.72727 0 0.27274] CT
1 0 0 RC
2 setlinecap
10.0 ML
2.75 LW
N
539.625 459.5 M
538.837 457.075 L
536.775 455.577 L
534.225 455.577 L
532.163 457.075 L
531.375 459.5 L
532.163 461.925 L
534.225 463.423 L
536.775 463.423 L
538.837 461.925 L
539.625 459.5 L
S
GR
GS
[0.72727 0 0 0.72727 0 0.27274] CT
1 0 0 RC
2 setlinecap
10.0 ML
2.75 LW
N
550.625 465.5 M
549.837 463.075 L
547.775 461.577 L
545.225 461.577 L
543.163 463.075 L
542.375 465.5 L
543.163 467.925 L
545.225 469.423 L
547.775 469.423 L
549.837 467.925 L
550.625 465.5 L
S
GR
GS
[0.72727 0 0 0.72727 0 0.27274] CT
1 0 0 RC
2 setlinecap
10.0 ML
2.75 LW
N
560.625 470.5 M
559.837 468.075 L
557.775 466.577 L
555.225 466.577 L
553.163 468.075 L
552.375 470.5 L
553.163 472.925 L
555.225 474.423 L
557.775 474.423 L
559.837 472.925 L
560.625 470.5 L
S
GR
GS
[0.72727 0 0 0.72727 0 0.27274] CT
1 0 0 RC
2 setlinecap
10.0 ML
2.75 LW
N
570.625 474.5 M
569.837 472.075 L
567.775 470.577 L
565.225 470.577 L
563.163 472.075 L
562.375 474.5 L
563.163 476.925 L
565.225 478.423 L
567.775 478.423 L
569.837 476.925 L
570.625 474.5 L
S
GR
GS
[0.72727 0 0 0.72727 0 0.27274] CT
1 0 0 RC
2 setlinecap
10.0 ML
2.75 LW
N
581.625 477.5 M
580.837 475.075 L
578.775 473.577 L
576.225 473.577 L
574.163 475.075 L
573.375 477.5 L
574.163 479.925 L
576.225 481.423 L
578.775 481.423 L
580.837 479.925 L
581.625 477.5 L
S
GR
GS
[0.72727 0 0 0.72727 0 0.27274] CT
1 0 0 RC
2 setlinecap
10.0 ML
2.75 LW
N
591.625 482.5 M
590.837 480.075 L
588.775 478.577 L
586.225 478.577 L
584.163 480.075 L
583.375 482.5 L
584.163 484.925 L
586.225 486.423 L
588.775 486.423 L
590.837 484.925 L
591.625 482.5 L
S
GR
GS
[0.72727 0 0 0.72727 0 0.27274] CT
1 0 0 RC
2 setlinecap
10.0 ML
2.75 LW
N
601.625 486.5 M
600.837 484.075 L
598.775 482.577 L
596.225 482.577 L
594.163 484.075 L
593.375 486.5 L
594.163 488.925 L
596.225 490.423 L
598.775 490.423 L
600.837 488.925 L
601.625 486.5 L
S
GR
GS
[0.72727 0 0 0.72727 0 0.27274] CT
1 0 0 RC
2 setlinecap
10.0 ML
2.75 LW
N
612.625 492.5 M
611.837 490.075 L
609.775 488.577 L
607.225 488.577 L
605.163 490.075 L
604.375 492.5 L
605.163 494.925 L
607.225 496.423 L
609.775 496.423 L
611.837 494.925 L
612.625 492.5 L
S
GR
GS
[0.72727 0 0 0.72727 0 0.27274] CT
1 0 0 RC
2 setlinecap
10.0 ML
2.75 LW
N
622.625 497.5 M
621.837 495.075 L
619.775 493.577 L
617.225 493.577 L
615.163 495.075 L
614.375 497.5 L
615.163 499.925 L
617.225 501.423 L
619.775 501.423 L
621.837 499.925 L
622.625 497.5 L
S
GR
GS
[0.72727 0 0 0.72727 0 0.27274] CT
1 0 0 RC
2 setlinecap
10.0 ML
2.75 LW
N
632.625 501.5 M
631.837 499.075 L
629.775 497.577 L
627.225 497.577 L
625.163 499.075 L
624.375 501.5 L
625.163 503.925 L
627.225 505.423 L
629.775 505.423 L
631.837 503.925 L
632.625 501.5 L
S
GR
GS
[0.72727 0 0 0.72727 0 0.27274] CT
1 0 0 RC
2 setlinecap
10.0 ML
2.75 LW
N
643.625 504.5 M
642.837 502.075 L
640.775 500.577 L
638.225 500.577 L
636.163 502.075 L
635.375 504.5 L
636.163 506.925 L
638.225 508.423 L
640.775 508.423 L
642.837 506.925 L
643.625 504.5 L
S
GR
GS
[0.72727 0 0 0.72727 0 0.27274] CT
1 0 0 RC
2 setlinecap
10.0 ML
2.75 LW
N
653.625 506.5 M
652.837 504.075 L
650.775 502.577 L
648.225 502.577 L
646.163 504.075 L
645.375 506.5 L
646.163 508.925 L
648.225 510.423 L
650.775 510.423 L
652.837 508.925 L
653.625 506.5 L
S
GR
GS
[0.72727 0 0 0.72727 0 0.27274] CT
1 0 0 RC
2 setlinecap
10.0 ML
2.75 LW
N
663.625 507.5 M
662.837 505.075 L
660.775 503.577 L
658.225 503.577 L
656.163 505.075 L
655.375 507.5 L
656.163 509.925 L
658.225 511.423 L
660.775 511.423 L
662.837 509.925 L
663.625 507.5 L
S
GR
GS
[0.72727 0 0 0.72727 0 0.27274] CT
1 0 0 RC
2 setlinecap
10.0 ML
2.75 LW
N
674.625 507.5 M
673.837 505.075 L
671.775 503.577 L
669.225 503.577 L
667.163 505.075 L
666.375 507.5 L
667.163 509.925 L
669.225 511.423 L
671.775 511.423 L
673.837 509.925 L
674.625 507.5 L
S
GR
GS
[0.72727 0 0 0.72727 0 0.27274] CT
1 0 0 RC
2 setlinecap
10.0 ML
2.75 LW
N
684.625 507.5 M
683.837 505.075 L
681.775 503.577 L
679.225 503.577 L
677.163 505.075 L
676.375 507.5 L
677.163 509.925 L
679.225 511.423 L
681.775 511.423 L
683.837 509.925 L
684.625 507.5 L
S
GR
GS
[0.72727 0 0 0.72727 0 0.27274] CT
1 0 0 RC
2 setlinecap
10.0 ML
2.75 LW
N
694.625 508.5 M
693.837 506.075 L
691.775 504.577 L
689.225 504.577 L
687.163 506.075 L
686.375 508.5 L
687.163 510.925 L
689.225 512.423 L
691.775 512.423 L
693.837 510.925 L
694.625 508.5 L
S
GR
GS
[0.72727 0 0 0.72727 0 0.27274] CT
1 0 0 RC
2 setlinecap
10.0 ML
2.75 LW
N
705.625 509.5 M
704.837 507.075 L
702.775 505.577 L
700.225 505.577 L
698.163 507.075 L
697.375 509.5 L
698.163 511.925 L
700.225 513.423 L
702.775 513.423 L
704.837 511.925 L
705.625 509.5 L
S
GR
GS
[0.72727 0 0 0.72727 0 0.27274] CT
1 0 0 RC
2 setlinecap
10.0 ML
2.75 LW
N
715.625 510.5 M
714.837 508.075 L
712.775 506.577 L
710.225 506.577 L
708.163 508.075 L
707.375 510.5 L
708.163 512.925 L
710.225 514.423 L
712.775 514.423 L
714.837 512.925 L
715.625 510.5 L
S
GR
GS
[0.72727 0 0 0.72727 0 0.27274] CT
1 0 0 RC
2 setlinecap
10.0 ML
2.75 LW
N
725.625 512.5 M
724.837 510.075 L
722.775 508.577 L
720.225 508.577 L
718.163 510.075 L
717.375 512.5 L
718.163 514.925 L
720.225 516.423 L
722.775 516.423 L
724.837 514.925 L
725.625 512.5 L
S
GR
GS
[0.72727 0 0 0.72727 0 0.27274] CT
1 0 0 RC
2 setlinecap
10.0 ML
2.75 LW
N
736.625 514.5 M
735.837 512.075 L
733.775 510.577 L
731.225 510.577 L
729.163 512.075 L
728.375 514.5 L
729.163 516.925 L
731.225 518.423 L
733.775 518.423 L
735.837 516.925 L
736.625 514.5 L
S
GR
GS
[0.72727 0 0 0.72727 0 0.27274] CT
1 0 0 RC
2 setlinecap
10.0 ML
2.75 LW
N
746.625 516.5 M
745.837 514.075 L
743.775 512.577 L
741.225 512.577 L
739.163 514.075 L
738.375 516.5 L
739.163 518.925 L
741.225 520.423 L
743.775 520.423 L
745.837 518.925 L
746.625 516.5 L
S
GR
GS
[0.72727 0 0 0.72727 0 0.27274] CT
1 0 0 RC
2 setlinecap
10.0 ML
2.75 LW
N
756.625 517.5 M
755.837 515.075 L
753.775 513.577 L
751.225 513.577 L
749.163 515.075 L
748.375 517.5 L
749.163 519.925 L
751.225 521.423 L
753.775 521.423 L
755.837 519.925 L
756.625 517.5 L
S
GR
GS
[0.72727 0 0 0.72727 0 0.27274] CT
1 0 0 RC
2 setlinecap
10.0 ML
2.75 LW
N
767.625 518.5 M
766.837 516.075 L
764.775 514.577 L
762.225 514.577 L
760.163 516.075 L
759.375 518.5 L
760.163 520.925 L
762.225 522.423 L
764.775 522.423 L
766.837 520.925 L
767.625 518.5 L
S
GR
GS
[0.72727 0 0 0.72727 0 0.27274] CT
1 0 0 RC
2 setlinecap
10.0 ML
2.75 LW
N
777.625 519.5 M
776.837 517.075 L
774.775 515.577 L
772.225 515.577 L
770.163 517.075 L
769.375 519.5 L
770.163 521.925 L
772.225 523.423 L
774.775 523.423 L
776.837 521.925 L
777.625 519.5 L
S
GR
GS
[0.72727 0 0 0.72727 0 0.27274] CT
1 0 0 RC
2 setlinecap
10.0 ML
2.75 LW
N
787.625 519.5 M
786.837 517.075 L
784.775 515.577 L
782.225 515.577 L
780.163 517.075 L
779.375 519.5 L
780.163 521.925 L
782.225 523.423 L
784.775 523.423 L
786.837 521.925 L
787.625 519.5 L
S
GR
GS
[0.72727 0 0 0.72727 0 0.27274] CT
1 0 0 RC
2 setlinecap
10.0 ML
2.75 LW
N
798.625 519.5 M
797.837 517.075 L
795.775 515.577 L
793.225 515.577 L
791.163 517.075 L
790.375 519.5 L
791.163 521.925 L
793.225 523.423 L
795.775 523.423 L
797.837 521.925 L
798.625 519.5 L
S
GR
GS
[0.72727 0 0 0.72727 0 0.27274] CT
1 0 0 RC
2 setlinecap
10.0 ML
2.75 LW
N
808.625 519.5 M
807.837 517.075 L
805.775 515.577 L
803.225 515.577 L
801.163 517.075 L
800.375 519.5 L
801.163 521.925 L
803.225 523.423 L
805.775 523.423 L
807.837 521.925 L
808.625 519.5 L
S
GR
GS
[0.72727 0 0 0.72727 0 0.27274] CT
1 0 0 RC
2 setlinecap
10.0 ML
2.75 LW
N
818.625 519.5 M
817.837 517.075 L
815.775 515.577 L
813.225 515.577 L
811.163 517.075 L
810.375 519.5 L
811.163 521.925 L
813.225 523.423 L
815.775 523.423 L
817.837 521.925 L
818.625 519.5 L
S
GR
GS
[0.72727 0 0 0.72727 0 0.27274] CT
1 0 0 RC
2 setlinecap
10.0 ML
2.75 LW
N
829.625 519.5 M
828.837 517.075 L
826.775 515.577 L
824.225 515.577 L
822.163 517.075 L
821.375 519.5 L
822.163 521.925 L
824.225 523.423 L
826.775 523.423 L
828.837 521.925 L
829.625 519.5 L
S
GR
GS
[0.72727 0 0 0.72727 0 0.27274] CT
1 0 0 RC
2 setlinecap
10.0 ML
2.75 LW
N
839.625 519.5 M
838.837 517.075 L
836.775 515.577 L
834.225 515.577 L
832.163 517.075 L
831.375 519.5 L
832.163 521.925 L
834.225 523.423 L
836.775 523.423 L
838.837 521.925 L
839.625 519.5 L
S
GR
GS
[0.72727 0 0 0.72727 0 0.27274] CT
1 0 0 RC
2 setlinecap
10.0 ML
2.75 LW
N
850.625 519.5 M
849.837 517.075 L
847.775 515.577 L
845.225 515.577 L
843.163 517.075 L
842.375 519.5 L
843.163 521.925 L
845.225 523.423 L
847.775 523.423 L
849.837 521.925 L
850.625 519.5 L
S
GR
GS
[0.72727 0 0 0.72727 0 0.27274] CT
1 GC
N
547 258 M
547 120 L
836 120 L
836 258 L
cp
f
GR
GS
[0.72727 0 0 0.72727 442.70299 106.99068] CT
/Helvetica 15 F
GS
[1 0 0 1 0 0] CT
0 5.526 moveto 
1 -1 scale
(Kernal Density Estimation) t 
GR
GR
GS
[0.72727 0 0 0.72727 0 0.27274] CT
1 0 0 RC
2 setlinecap
10.0 ML
2.75 LW
N
556.495 146.737 M
603.969 146.737 L
S
GR
GS
[0.72727 0 0 0.72727 0 0.27274] CT
1 0 0 RC
2 setlinecap
10.0 ML
2.75 LW
N
584.625 146.5 M
583.837 144.075 L
581.775 142.577 L
579.225 142.577 L
577.163 144.075 L
576.375 146.5 L
577.163 148.925 L
579.225 150.423 L
581.775 150.423 L
583.837 148.925 L
584.625 146.5 L
S
GR
GS
[0.72727 0 0 0.72727 442.70299 137.72728] CT
/Helvetica 15 F
GS
[1 0 0 1 0 0] CT
0 5.526 moveto 
1 -1 scale
(Normalized HIstogram) t 
GR
GR
GS
[0.72727 0 0 0.72727 0 0.27274] CT
0.838 0.899 0.974 RC
N
556.495 204.464 M
556.495 173.536 L
603.969 173.536 L
603.969 204.464 L
cp
f
GR
GS
[0.72727 0 0 0.72727 0 0.27274] CT
2 setlinecap
10.0 ML
N
556.495 204.464 M
556.495 173.536 L
603.969 173.536 L
603.969 204.464 L
556.495 204.464 L
S
GR
GS
[0.72727 0 0 0.72727 442.70299 168.46387] CT
/Helvetica 15 F
GS
[1 0 0 1 0 0] CT
0 5.526 moveto 
1 -1 scale
(Normal Density Estimation) t 
GR
GR
GS
[0.72727 0 0 0.72727 0 0.27274] CT
2 setlinecap
10.0 ML
2.063 LW
N
556.495 231.263 M
603.969 231.263 L
S
GR
GS
[0.72727 0 0 0.72727 0 0.27274] CT
0.149 GC
2 setlinecap
10.0 ML
N
547 258 M
547 120 L
836 120 L
836 258 L
547 258 L
S
GR
%%Trailer
%%Pages: 1
%%EOF
