ply
format ascii 1.0
comment Author: CloudCompare (TELECOM PARISTECH/EDF R&D)
obj_info Generated by CloudCompare!
element vertex 16
property float x
property float y
property float z
end_header
-84.0582 -56.0574 -7.43494 
-84.6536 -39.0129 -7.03245 
-38.1168 -36.8979 -3.68482 
-43.7866 -60.4698 -5.26818 
34.9714 -38.0297 -2.94046 
83.7497 -28.0477 -4.68584 
82.8574 -51.8561 21.6813 
42.156 -55.6775 -5.10082 
61.1878 -138.862 -1.55312 
104.115 -125.943 -1.27196 
110.882 -144.384 -0.53402 
63.8524 -154.626 0.357393 
-105.201 -141.171 -13.2183 
-82.5887 -134.379 -11.3975 
-79.4875 -180.975 -12.9919 
-102.864 -181.644 -16.1927 
