ply
format ascii 1.0
comment Author: CloudCompare (TELECOM PARISTECH/EDF R&D)
obj_info Generated by CloudCompare!
element vertex 12
property float x
property float y
property float z
end_header
-49.004 -107.704 1.24146 
-2.55321 -108.761 -0.102219 
-1.58588 -155.464 6.75091 
-49.8935 -152.421 5.26254 
30.6503 -108.895 6.10847 
84.6632 -108.472 7.61321 
84.4245 -157.073 11.4881 
31.8375 -156.082 16.3202 
-114.727 -87.2462 10.7068 
-68.5306 -86.5633 0.024082 
-68.7105 77.4604 -2.78533 
-116.35 78.7578 3.16371 
